…
The shooting data we have now contains a lot of descriptions about the shootings. These are text descriptions and cannot be used in any statistical analysis. They will not be used in this tutorial so we can remove them to create a smaller subset of relevant data.

# select specific attributes
data <- msa %>%
  select(CaseID, Date, City, State, Latitude, Longitude, 
         `Total Number of Fatalities`, `Average Shooter Age`,
         `Shooter Sex`, `Shooter Race`, `School Related`,
         `Place Type`, `Relationship to Incident Location`,
         `Fate of Shooter`, `Possible Motive - General`,
         `History of Mental Illness - General`)

data

## # A tibble: 335 x 16
##    CaseID Date   City    State   Latitude Longitude `Total Number of  `Average Shoote `Shooter Sex` `Shooter Race`   
##     <int> <chr>  <chr>   <chr>      <dbl>     <dbl>              <int> <chr>            <chr>         <chr>            
##  1      1 8/1/1 Austin  Texas       30.2    - 97.8                 16 25               Male          White American o
##  2      2 11/12 Mesa    Arizona     33.4    -112                    5 18               Male          White American o
##  3      3 12/31 New Or Louisi     30.1    - 89.9                 10 23               Male          Black American o
##  4      4 1/17/ Chicago Illino     41.8    - 87.7                  1 14               Male          Unknown          
##  5      5 12/30 Olean   New Yo     42.1    - 78.4                  3 17               Male          White American o
##  6      6 2/19/ Los An Califo     34.2    -119                    1 18               Male          White American o
##  7      7 7/12/ Fuller Califo     33.9    -118                    7 37               Male          White American o
##  8      8 1/29/ San Di Califo     32.9    -117                    2 16               Female        White American o
##  9      9 10/6/ Columb South      34.1    - 80.8                  2 19               Male          Black American o
## 10     10 3/19/ Las Ve Nevada      36.2    -115                    1 17               Male          White American o
## # ... with 325 more rows, and 6 more variables: `School Related` <chr>, `Place Type` <chr>, `Relationship to Incident
## #   Location` <chr>, `Fate of Shooter` <chr>, `Possible Motive - General` <chr>, `History of Mental Illness -
## #   General` <chr>
…
The pt() function will be used to find our p-value. We perform a t-statistic and calculate degrees of freedom after some computation:

We first need to get the necessary information:

# get number of fatalities per city
fatalities_shootings <- group_by(data, state, city) %>%
  mutate(total_fatalities = sum(num_fatalities)) %>%
  mutate(total_shootings = n()) %>%
  select(state, total_fatalities, total_shootings) %>%
  distinct()

fatalities_shootings

## # A tibble: 252 x 4
## # Groups:   state, city [252]
##    city        state total_fatalities total_shootings
##    <chr>       <chr>            <int>           <int>
##  1 Austin      TX                  17               2
##  2 Mesa        AZ                   6               2
##  3 New Orleans LA                  11               4
##  4 Chicago     IL                  18               7
##  5 Olean       NY                   3               1
##  6 Los Angeles CA                   8               5
##  7 Fullerton   CA                   7               1
##  8 San Diego   CA                   7               3
##  9 Columbia    SC                   2               1
## 10 Las Vegas   NV                   6               4
## # ... with 242 more rows
…
